{
  "project_info": {
    "project_number": "1063893712981",
    "firebase_url": "https://rtc-caller.firebaseio.com",
    "project_id": "rtc-caller",
    "storage_bucket": "rtc-caller.appspot.com"
  },
  "client": [
    {
      "client_info": {
        "mobilesdk_app_id": "1:1063893712981:android:ffd3ddfbce6f9e9ed614dc",
        "android_client_info": {
          "package_name": "com.rtccaller"
        }
      },
      "oauth_client": [
        {
          "client_id": "1063893712981-jnj3gq66maotfrkv337j2vgki5pj8vsg.apps.googleusercontent.com",
          "client_type": 3
        }
      ],
      "api_key": [
        {
          "current_key": "AIzaSyASXY3YK_h3r2tqyNAGlOD7udT47F8h9EQ"
        }
      ],
      "services": {
        "appinvite_service": {
          "other_platform_oauth_client": [
            {
              "client_id": "1063893712981-jnj3gq66maotfrkv337j2vgki5pj8vsg.apps.googleusercontent.com",
              "client_type": 3
            }
          ]
        }
      }
    }
  ],
  "configuration_version": "1"
}